pins
…
Notice that the full name of a pin is <owner>/<name>. This namespacing
allows multiple people (or packages) to create pins with the same name.
You can then retrieve a pin through pin_get():
Copyseattle_sales <- pin_get("hpiR/seattle_sales") %>% print()
#> # A tibble: 43,313 x 16
#>    pinx  sale_id sale_price sale_date  use_type  area lot_sf  wfnt
#>    <chr> <chr>        <int> <date>     <chr>    <int>  <int> <dbl>
#>  1 ..00… 2013..…     289000 2013-02-06 sfr         79   9295     0
#>  2 ..00… 2013..…     356000 2013-07-11 sfr         18   6000     0
#>  3 ..00… 2010..…     333500 2010-12-29 sfr         79   7200     0
#>  4 ..00… 2016..…     577200 2016-03-17 sfr         79   7200     0
#>  5 ..00… 2012..…     237000 2012-05-02 sfr         79   5662     0
#>  6 ..00… 2014..…     347500 2014-03-11 sfr         79   5830     0
#>  7 ..00… 2012..…     429000 2012-09-20 sfr         18  12700     0
#>  8 ..00… 2015..…     653295 2015-07-21 sfr         79   7000     0
#>  9 ..00… 2014..…     427650 2014-02-19 townhou…    79   3072     0
#> 10 ..00… 2015..…     488737 2015-03-19 townhou…    79   3072     0
#> # … with 43,303 more rows, and 8 more variables: bldg_grade <int>,
#> #   tot_sf <int>, beds <int>, baths <dbl>, age <int>, eff_age <int>,
#> #   longitude <dbl>, latitude <dbl>
…
